…
``` r
excellent_df = brfss_smart2010 |>
  filter(response == "Excellent") |>
  group_by(year, locationabbr) |>
  summarize(average_value = mean(data_value, na.rm = TRUE)) 
```

    ## `summarise()` has grouped output by 'year'. You can override using the
    ## `.groups` argument.

``` r
print(excellent_df)
```

    ## # A tibble: 443 × 3
    ## # Groups:   year [9]
    ##     year locationabbr average_value
    ##    <int> <chr>                <dbl>
    ##  1  2002 AK                    27.9
    ##  2  2002 AL                    18.5
    ##  3  2002 AR                    24.1
    ##  4  2002 AZ                    24.1
    ##  5  2002 CA                    22.7
    ##  6  2002 CO                    23.1
    ##  7  2002 CT                    29.1
    ##  8  2002 DC                    29.3
    ##  9  2002 DE                    20.9
    ## 10  2002 FL                    25.7
    ## # ℹ 433 more rows
…
